[npc]
Hiker Anthony
down
365
5
15
Geodude,11,Machop,11
2
-1
0
false
false
false
[/npc]
[npc]
NULL
down
0
11
13
NULL
0
-1
1
false
false
false
[/npc]
[warp]
11
11
18
33
-50
-39
0
[/warp]
