[npc]
Tin Tower Sage
right
276
2
11
NULL
0
-1
0,1
false
false
false
[/npc]
[npc]
Tin Tower Sage
left
276
7
9
NULL
0
-1
2,3
false
false
false
[/npc]
[warp]
4
18
20
14
-4
-4
0
[/warp]
[warp]
5
18
20
14
-4
-4
0
[/warp]
[warp]
5
3
2
15
-31
-47
0
[/warp]
