[npc]
Kurt
down
329
3
3
NULL
0
-1
0
false
false
false
[/npc]
[npc]
Kurt's granddaughter
down
262
6
4
NULL
0
-1
1
false
false
false
[/npc]
[warp]
4
9
17
7
-4
2
0
[/warp]
