[npc]
Blackbelt Kiyo
up
367
13
2
NULL
0
-1
0,1,2
false
false
false
[/npc]
[warp]
17
30
24
38
-33
-42
0
[/warp]
[warp]
3
3
3
20
-33
-43
0
[/warp]
[hmobject]
STRENGTH_BOULDER
9
10
[/hmobject]
