[warp]
9
15
8
15
-35
-34
0
[/warp]
[warp]
16
5
16
5
-35
-34
0
[/warp]
[warp]
17
5
17
5
-35
-34
0
[/warp]
[npc]
Amphy
down
0
8
8
NULL
0
-1
0
false
false
false
[/npc]