[warp]
26
7
19
7
11
16
0
[/warp]
[warp]
26
6
19
6
11
16
0
[/warp]
[warp]
26
13
19
13
11
16
0
[/warp]
[warp]
26
12
19
12
11
16
0
[/warp]
[hmobject]
CUT_TREE
41
11
[/hmobject]
[npc]
Boyfriend
down
317
28
5
Venusaur,36,Charizard,36
2
-1
1
false
false
false
[/npc]
[npc]
Girlfriend
down
271
29
5
Ninetales,39
1
-1
0
false
false
false
[/npc]
[npc]
NULL
down
0
33
11
NULL
0
-1
2
false
false
false
[/npc]



