[warp]
5
6
15
16
2
49
0
[/warp]
[warp]
4
14
5
7
26
49
0
[/warp]
[warp]
21
9
23
41
-44
47
0
[/warp]
[warp]
25
2
9
11
-46
-44
0
[/warp]
[warp]
36
11
7
12
-46
-45
0
[/warp]
[warp]
12
11
8
13
-47
-42
0
[/warp]
[warp]
10
3
9
12
-47
-43
0
[/warp]
[warp]
17
3
7
14
-47
-44
0
[/warp]
[warp]
32
2
9
12
-47
-45
0
[/warp]
